Place,Name,Sex,BirthDate,Age,Country,State,Equipment,Division,BodyweightKg,WeightClassKg,Squat1Kg,Squat2Kg,Squat3Kg,Squat4Kg,Best3SquatKg,Bench1Kg,Bench2Kg,Bench3Kg,Bench4Kg,Best3BenchKg,Deadlift1Kg,Deadlift2Kg,Deadlift3Kg,Deadlift4Kg,Best3DeadliftKg,TotalKg,Event
1,Brooke Humphries,F,1995-02-28,28,USA,TX,Raw,DT Int,59.7,60,95,102.5,-105,,102.5,50,55,-60,,55,117.5,125,-127.5,,125,282.5,SBD
1,Cheyli Perez,F,1998-04-22,24,USA,TX,Raw,DT Int,70.81,75,87.5,92.5,97.5,,97.5,37.5,42.5,47.5,,47.5,87.5,102.5,112.5,120,112.5,257.5,SBD
1,Ronni Schaber,F,1997-09-05,25,USA,TX,Raw,DT Int,114.08,125,122.5,132.5,142.5,,142.5,75,-82.5,-82.5,,75,117.5,130,-137.5,,130,347.5,SBD
1,Catie Freeman,F,1989-03-10,34,USA,TX,Raw,DT Novice,65,67.5,-102.5,102.5,105,,105,67.5,72.5,75,,75,102.5,110,117.5,,117.5,297.5,SBD
1,Megan Kenrick,F,1994-04-21,28,USA,TX,Raw,DT Novice,71.8,75,102.5,110,120,,120,-70,70,-72.5,,70,125,137.5,142.5,,142.5,332.5,SBD
1,Regina Sowell,F,1984-04-26,38,USA,TX,Raw,DT Open,58.06,60,122.5,-130,-130,,122.5,70,-75,-75,,70,127.5,132.5,-137.5,,132.5,325,SBD
1,Stefanie Herod,F,1992-09-09,30,USA,TX,Raw,DT Open,100.38,110,142.5,157.5,167.5,,167.5,92.5,100,-107.5,,100,205,220,-235,,220,487.5,SBD
1,Regina Sowell,F,1984-04-26,38,USA,TX,Raw,DT Sub Master,58.06,60,122.5,-130,-130,,122.5,70,-75,-75,,70,127.5,132.5,-137.5,,132.5,325,SBD
1,Naomi Dollar,F,1972-07-29,50,USA,TX,Raw,M2,94.71,100,60,67.5,75,,75,60,65,-67.5,,65,115,122.5,130,,130,270,SBD
1,Felicia St Cyr,F,1991-11-08,31,USA,TX,Raw,Nov,64.81,67.5,82.5,95,102.5,,102.5,65,72.5,80,,80,120,130,140,-145,140,322.5,SBD
1,Kayla Edmondson,F,1997-06-04,25,USA,TX,Wraps,DT Open,91.17,100,110,-122.5,122.5,,122.5,52.5,57.5,-60,,57.5,120,130,137.5,-142.5,137.5,317.5,SBD
1,Sadie Matkins,F,2006-08-16,16,USA,TX,Single-ply,DT Teen,74.7,75,110,120,125,-132.5,125,65,72.5,-77.5,,72.5,110,-117.5,-117.5,,110,307.5,SBD
1,Zoe Hichcock,F,2007-08-25,15,USA,TX,Single-ply,DT Teen,145.1,140+,-97.5,97.5,105,-115,105,-72.5,-72.5,72.5,75,72.5,102.5,105,110,-117.5,110,287.5,SBD
1,Melissa Toy,F,1980-06-30,42,USA,TX,Single-ply,M1,86.18,90,,,,,,75,-82.5,-82.5,,75,,,,,,75,B
1,Grace Dailey,F,2006-05-23,16,USA,TX,Raw,DT Teen,62.23,67.5,,,,,,,,,,,90,107.5,112.5,,112.5,112.5,D
1,Jose Hernandez #1,M,1993-12-19,29,USA,TX,Raw,DT Int,78.3,82.5,142.5,155,-167.5,,155,97.5,102.5,-107.5,,102.5,175,185,190,,190,447.5,SBD
1,Derrick Jackson,M,2002-08-07,20,USA,TX,Raw,DT Int,89.3,90,-142.5,-142.5,155,,155,125,142.5,-160,,142.5,185,200,220,-230,220,517.5,SBD
1,Todd Benoit,M,1993-07-03,29,USA,TX,Raw,DT Int,107.7,110,172.5,192.5,200,,200,115,120,-130,,120,187.5,210,220,,220,540,SBD
1,Matthew Herbert,M,1994-01-20,,USA,TX,Raw,DT Int,114.5,125,125,132.5,137.5,,137.5,90,95,-97.5,,95,162.5,170,182.5,190,182.5,415,SBD
1,Donnie Duncan,M,1974-02-24,49,USA,TX,Raw,DT Master 1,84,90,195,200,212.5,,212.5,110,112.5,-120,,112.5,210,220,230,235,230,555,SBD
1,Jesse Cleaver Jr,M,1982-12-08,40,USA,TX,Raw,DT Master 1,109.68,110,185,197.5,210,,210,130,140,-142.5,,140,282.5,302.5,317.5,,317.5,667.5,SBD
1,Blaine Sowell,M,2007-07-02,15,USA,TX,Raw,DT Open,66.86,67.5,125,132.5,142.5,,142.5,72.5,77.5,-85,,77.5,180,187.5,192.5,200,192.5,412.5,SBD
1,Jonathan Lopez,M,1998-09-21,24,,,Raw,DT Open,88.17,90,185,192.5,200,,200,117.5,127.5,-137.5,,127.5,230,250,272.5,,272.5,600,SBD
2,Donnie Duncan,M,1974-02-24,49,USA,TX,Raw,DT Open,84,90,195,200,212.5,,212.5,110,112.5,-120,,112.5,210,220,230,235,230,555,SBD
3,Greg Johnson,M,1969-09-13,53,USA,TX,Raw,DT Open,84.1,90,180,195,200,,200,-72.5,120,-127.5,,120,187.5,200,205,,205,525,SBD
1,Jesse Cleaver Jr,M,1982-12-08,40,USA,TX,Raw,DT Open,109.68,110,185,197.5,210,,210,130,140,-142.5,,140,282.5,302.5,317.5,,317.5,667.5,SBD
1,Jose Argote,M,1993-03-08,30,USA,TX,Raw,DT Open,120.3,125,275,295,-320,,295,175,-185,-185,,175,240,260,-272.5,,260,730,SBD
1,Jacob Joyner,M,,,USA,TX,Raw,DT Sub Master,81.2,82.5,147.5,157.5,172.5,,172.5,95,100,105,,105,147.5,162.5,167.5,,167.5,445,SBD
1,Blaine Sowell,M,2007-07-02,15,USA,TX,Raw,DT Teen,66.86,67.5,125,132.5,142.5,,142.5,72.5,77.5,-85,,77.5,180,187.5,192.5,200,192.5,412.5,SBD
1,Charlie Severn,M,1968-08-03,54,USA,TX,Raw,M2,104.4,110,122.5,135,142.5,,142.5,120,-125,125,,125,175,187.5,197.5,,197.5,465,SBD
1,Matthew Newcomer,M,1983-07-29,39,USA,TX,Raw,Open,124.5,125,220,235,250,,250,160,167.5,-175,,167.5,265,285,292.5,,292.5,710,SBD
NS,Justin Mount,M,1990-05-05,,USA,TX,Raw,Open,,,,,,,,,,,,,,,,,,,SBD
1,Matthew Newcomer,M,1983-07-29,39,USA,TX,Raw,SM,124.5,125,220,235,250,,250,160,167.5,-175,,167.5,265,285,292.5,,292.5,710,SBD
1,Christian Kearney,M,1998-09-20,,USA,TX,Wraps,DT Open,66.95,67.5,235,252.5,-258,,252.5,132.5,140,-143,,140,287.5,-305,-305,,287.5,680,SBD
1,Jared Stewart,M,1993-09-21,29,,,Wraps,DT Open,107.3,110,212.5,235,-255,,235,115,-130,130,,130,212.5,235,255,265,255,620,SBD
NS,Taylor Ray #3,M,2007-10-09,15,USA,TX,Wraps,DT Teen,,,,,,,,,,,,,,,,,,,SBD
1,Marcus Franklin Jr,M,2007-03-01,16,USA,TX,Wraps,DT Teen,103.7,110,215,227.5,240,,240,125,-137.5,-137.5,,125,227.5,232.5,237.5,,237.5,602.5,SBD
1,Chad Murphy,M,1973-10-31,49,USA,TX,Wraps,M1,140.7,140+,195,205,217.5,,217.5,147.5,-152.5,-152.5,,147.5,245,-255,-255,,245,610,SBD
1,Ryan Graham,M,1996-02-17,27,USA,TX,Wraps,Open,105.5,110,225,232.5,-237.5,,232.5,147.5,155,160,-165,160,225,230,235,,235,627.5,SBD
1,Jacob Baker #3,M,2004-08-18,18,USA,TX,Single-ply,DT Novice,89.9,90,-205,205,210,,210,112.5,120,-130,,120,220,230,-237.5,,230,560,SBD
1,Joshua Tillis,M,1997-01-15,26,USA,TX,Raw,DT Open,111,125,,,,,,175,185,-192.5,,185,257.5,272.5,285,,285,470,BD
1,Mario Valle,M,1974-08-16,48,USA,TX,Raw,DT Master 1,88.5,90,,,,,,217.5,,-230.5,,217.5,,,,,,217.5,B
1,Mario Valle,M,1974-08-16,48,USA,TX,Raw,DT Open,88.5,90,,,,,,217.5,,-230.5,,217.5,,,,,,217.5,B
1,Mario Valle,M,1974-08-16,48,USA,TX,Raw,DT P/F/M,88.5,90,,,,,,217.5,,-230.5,,217.5,,,,,,217.5,B
DQ,Jarren Chaney,M,1989-12-14,33,USA,TX,Single-ply,Open,101.4,110,,,,,,-227.5,-227.5,-227.5,,,,,,,,,B
NS,Jase Hamblin,M,,,,,Raw,Open,,,,,,,,,,,,,,,,,,,D
